<svg width="500" height="338" viewBox="0 0 500 338" fill="none" xmlns="http://www.w3.org/2000/svg">
<path d="M23.941 131.025C37.8827 63.2324 119.128 19.5882 190.254 37.1121C261.379 54.6359 318.611 74.84 371.226 53.6506C423.842 32.4612 533.621 96.6252 448.689 208.592C363.758 320.56 208.335 339.668 137.392 318.73C66.468 297.812 2.19883 236.879 23.941 131.025Z" fill="#EFF5FF"/>
<g opacity="0.3" filter="url(#filter0_f)">
<path d="M57.1172 195.059L187.116 70.5481C189.832 67.9199 193.867 67.5092 197.16 69.3161L206.628 74.9011L189.503 91.4095C187.198 93.627 187.692 97.3229 190.409 98.8834L263.353 141.51C267.058 143.645 271.75 143.07 274.797 140.113L291.18 124.344L427.986 227.503C431.01 229.783 430.661 234.427 427.331 236.23L270.104 321.377C267.469 323.923 262.118 325.155 258.907 323.348L58.6815 208.2C52.9185 203.354 51.0248 200.89 57.1172 195.059Z" fill="#4971D0"/>
</g>
<path d="M206.748 45.1009L196.623 41.6743L176.876 60.0611L177.462 65.9115L179.637 67.4994L198.046 47.1904L205.241 48.0261L206.748 45.1009Z" fill="#58647D"/>
<path d="M283.984 96.3371L267.333 112.384C264.237 115.393 259.468 115.978 255.703 113.805L180.899 70.0105C178.137 68.4226 177.719 64.578 179.978 62.4051L197.382 45.6062L283.984 96.3371Z" fill="url(#paint0_linear)"/>
<path d="M282.976 95.9103L197.384 45.6013L225.66 54.3729L316.278 106.608L282.976 95.9103Z" fill="#F35044"/>
<path d="M197.292 43.0029L225.662 51.8657L222.399 50.027L186.173 36.6692L196.464 43.7918" fill="#737D93"/>
<path d="M282.985 93.9043L401.048 162.27L441.63 175.391L310.848 100.59L316.789 104.017L283.57 93.4028" fill="#737D93"/>
<path d="M61.4131 203.305L58.9029 201.884C55.6396 200.046 53.5478 199.461 50.2008 192.357L41.5824 172.382L50.6192 178.232L61.4131 203.305Z" fill="#2D3C62"/>
<path d="M49.9429 191.855L41.4919 172.382L50.5286 178.232L58.5613 196.87L49.9429 191.855Z" fill="#A0A9BD"/>
<path d="M45.3419 165.274L177.462 38.5719C180.224 35.8974 184.324 35.4795 187.671 37.3182L197.293 43.0014L179.889 59.8003C177.546 62.0568 178.048 65.8178 180.809 67.4057L254.944 110.782C258.709 112.955 263.479 112.37 266.575 109.361L283.226 93.3144L400.034 161.68L403.058 163.271L398.781 163.678L261.805 293.814C259.128 296.405 253.689 297.659 250.426 295.82L46.9316 178.646C41.0745 173.715 39.15 171.208 45.3419 165.274Z" fill="url(#paint1_linear)"/>
<path d="M366.91 188.014L263.824 285.715C258.553 290.479 254.787 290.479 248.345 287.637L48.3647 173.973C46.4402 172.887 46.1055 170.212 47.6953 168.708L156.889 62.8168C157.977 61.7303 159.651 61.5631 160.906 62.3153L366.324 182.749C368.249 183.835 368.5 186.51 366.91 188.014Z" fill="#182035"/>
<path d="M335.665 198.818L259.857 272.449C258.267 274.037 255.757 274.288 253.832 273.201L75.4401 170.402C72.5952 168.73 72.0095 164.802 74.436 162.462L149.15 88.1463C150.823 86.5583 153.333 86.224 155.258 87.3941L334.661 190.878C337.589 192.55 338.008 196.478 335.665 198.818Z" fill="#EDF3FF"/>
<path d="M330.671 203.317L142.284 94.8647L130.449 106.627L318.586 214.68L330.671 203.317Z" fill="#FBFDFF"/>
<path d="M207.067 146.279L214.059 150.237L215.45 148.808L208.459 144.849L207.067 146.279Z" fill="#B4CBFF"/>
<path d="M210.177 142.526L225.2 151.151L226.592 149.721L211.568 141.097L210.177 142.526Z" fill="#B4CBFF"/>
<path d="M288.655 193.526L303.678 202.15L305.069 200.72L290.046 192.096L288.655 193.526Z" fill="#B4CBFF"/>
<path d="M138.847 107.209L153.87 115.833L155.261 114.403L140.238 105.779L138.847 107.209Z" fill="#B4CBFF"/>
<path d="M317.611 216.73L129.224 108.278L117.389 120.04L305.526 228.093L317.611 216.73Z" fill="#FBFDFF"/>
<path d="M46.6877 178.236L55.3898 197.124C56.4776 199.464 58.2347 201.47 60.4939 202.724L260.009 317.382L249.68 293.655L46.6877 178.236Z" fill="#1B243A"/>
<path d="M46.6884 178.236L54.0517 194.366L257.127 310.621L249.68 293.655L46.6884 178.236Z" fill="#A0A9BD"/>
<path d="M426.896 228.545L438.359 173.552L403.3 162.854C401.626 162.353 399.869 162.771 398.614 163.941L264.151 290.559L274.526 315.047L426.896 228.545Z" fill="#0F182E"/>
<path opacity="0.31" d="M437.432 177.894L430.655 210.488L345.308 223.944L400.281 167.447L437.432 177.894Z" fill="url(#paint2_linear)"/>
<path d="M440.705 174.224L403.888 162.44C402.131 161.855 400.29 162.357 398.951 163.527L264.148 290.433L272.27 309.033L333.853 271.842C337.117 269.919 339.376 266.66 340.213 262.983L347.743 227.463C348.162 225.29 349.249 223.367 350.839 221.779L397.529 175.478C399.788 173.222 403.052 172.386 406.147 173.305L436.939 182.415C438.947 183 441.039 181.83 441.625 179.824L442.294 177.15C442.629 175.896 441.96 174.642 440.705 174.224Z" fill="#A0A9BD"/>
<path d="M273.858 90.6476L311.343 102.265L240.221 60.7272L202.149 48.6086L273.858 90.6476Z" fill="#2F333F"/>
<path d="M277.122 84.9724L308.583 94.2494L237.545 52.7119L207.087 43.8528L277.122 84.9724Z" fill="#2F333F"/>
<path d="M259.212 104.77L188.926 63.8173L203.652 49.6929L273.854 90.6453L259.212 104.77Z" fill="#383B4A"/>
<path d="M259.214 102.273L188.929 61.3203L207.086 43.8528L277.288 84.8052L259.214 102.273Z" fill="url(#paint3_linear)"/>
<path d="M255.95 92.8246L212.774 67.6681L222.48 58.3911L265.572 83.464L255.95 92.8246Z" fill="#2F333F"/>
<path d="M311.342 102.261C311.342 102.261 313.267 98.3332 308.581 94.2379L277.12 84.9609L259.13 102.261V104.769L273.856 90.6441L311.342 102.261Z" fill="#262A33"/>
<path d="M259.217 104.772V102.264L188.932 61.3118V63.8191L259.217 104.772Z" fill="#2F333F"/>
<path fill-rule="evenodd" clip-rule="evenodd" d="M200.676 68.4471L218.985 50.7918L218.47 50.4453L200.276 68.0349L200.676 68.4471Z" fill="#2F333F"/>
<path d="M307.038 39.5548C309.255 37.9958 319.757 35.6668 329.618 36.1152C340.773 36.6828 343.438 44.7863 344.302 46.8898C351.12 63.617 344.906 78.6531 344.556 81.9327C329.058 72.2407 304.558 58.1317 304.558 58.1317C306.234 52.8814 305.808 48.1964 305.808 48.1964L305.933 40.1353C306.333 40.0418 306.735 39.8489 307.038 39.5548Z" fill="url(#paint4_linear)"/>
<path d="M281.67 13.4973L281.67 13.4973C260.717 18.2999 243.938 31.7174 232.396 43.9378C226.625 50.0477 222.164 55.8573 219.146 60.1394C217.637 62.2805 216.489 64.0395 215.718 65.2632C215.333 65.8751 215.041 66.3531 214.847 66.678C214.749 66.8405 214.676 66.9647 214.627 67.0483C214.607 67.0833 214.59 67.1111 214.579 67.1317L254.51 90.8686C254.522 90.8491 254.537 90.8232 254.556 90.7911C254.604 90.7109 254.675 90.5918 254.769 90.4361C254.958 90.1245 255.241 89.6663 255.615 89.079C256.364 87.9046 257.479 86.2143 258.949 84.1504C261.887 80.0226 266.239 74.4002 271.893 68.4212C283.201 56.4637 299.72 43.0768 320.563 37.3702L320.564 37.3701C326.181 35.8608 330.745 36.2786 333.907 37.0744C335.312 37.4283 336.44 37.8568 337.259 38.2238L297.379 14.329L297.377 14.3284L297.362 14.3223C297.349 14.317 297.33 14.3091 297.304 14.2988C297.252 14.2783 297.175 14.2484 297.073 14.2111C296.869 14.1364 296.568 14.0318 296.179 13.9127C295.401 13.6745 294.27 13.3781 292.862 13.1457C290.044 12.6808 286.115 12.4723 281.67 13.4973Z" fill="url(#paint5_linear)" stroke="#EDF1F8" stroke-width="0.100837"/>
<path d="M282.561 45.0867L284.072 44.1144L279.82 41.7608L278.209 42.7316L282.561 45.0867Z" fill="#ABBCE4"/>
<path d="M273.563 33.2014L275.074 32.2297L266.865 27.8282L265.353 28.7999L273.563 33.2014Z" fill="#ABBCE4"/>
<path d="M291.683 35.4529L293.095 34.4798L273.211 23.9332L271.7 24.9048L291.683 35.4529Z" fill="#ABBCE4"/>
<path d="M275.231 41.1943L276.742 40.2227L260.123 31.417L258.514 32.2877L275.231 41.1943Z" fill="#ABBCE4"/>
<path d="M285.347 39.4458L286.858 38.4741L278.648 34.0726L277.137 35.0443L285.347 39.4458Z" fill="#ABBCE4"/>
<path d="M266.706 58.1061L268.516 57.139L248.532 46.5913L246.721 47.5584L266.706 58.1061Z" fill="#ABBCE4"/>
<path d="M249.968 56.699L251.479 55.7273L243.267 51.4253L241.756 52.397L249.968 56.699Z" fill="#ABBCE4"/>
<path d="M256.279 68.2186L257.795 66.9486L237.812 56.4001L236.396 57.6716L256.279 68.2186Z" fill="#ABBCE4"/>
<path d="M251.213 73.526L252.629 72.2544L232.748 61.6079L231.23 62.9775L251.213 73.526Z" fill="#ABBCE4"/>
<path d="M264.145 290.433C264.145 290.433 257.713 299 249.764 293.986L259.888 317.304C259.888 317.304 264.912 320.728 274.534 315.045L264.145 290.433Z" fill="url(#paint6_linear)"/>
<path d="M264.162 290.391C264.162 290.391 257.609 298.9 249.66 293.885L256.94 310.517C256.94 310.517 262.646 314.698 272.268 309.014L264.162 290.391Z" fill="url(#paint7_linear)"/>
<g opacity="0.56">
<path opacity="0.56" d="M398.959 163.607L365.155 195.199L331.434 226.875L263.91 290.225C262.403 292.064 260.395 293.569 258.136 294.404C255.877 295.24 253.367 295.24 251.275 294.237C250.187 293.736 249.183 293.067 248.095 292.482L244.916 290.643L238.473 286.966L212.785 272.34L161.326 243.088L109.867 213.92L58.3236 184.836L109.699 214.255L161.075 243.59L212.283 272.925L237.971 287.635L244.414 291.312L247.593 293.151C248.681 293.736 249.685 294.404 250.857 294.989C252.028 295.491 253.283 295.825 254.622 295.909C255.877 295.909 257.216 295.742 258.387 295.24C260.814 294.321 262.822 292.816 264.495 290.894L331.769 227.376L365.406 195.617L398.959 163.607Z" fill="#EBEFFC"/>
</g>
<path d="M403.723 162.438L440.707 174.223C441.209 174.39 441.543 174.64 441.878 174.975L403.723 162.438Z" fill="#EBEFFC"/>
<path d="M366.995 175.554L371.429 171.291L339.55 152.57L335.031 156.916L366.995 175.554Z" fill="#DFE6F2"/>
<path d="M129.566 116.254L189.371 150.633L190.763 149.204L130.957 114.825L129.566 116.254Z" fill="#B4CBFF"/>
<path d="M257.736 169.904L317.541 204.283L318.932 202.853L259.127 168.474L257.736 169.904Z" fill="#B4CBFF"/>
<path d="M126.069 120.132L155.845 137.311L157.236 135.881L127.461 118.702L126.069 120.132Z" fill="#B4CBFF"/>
<path d="M254.31 173.591L284.085 190.77L285.477 189.34L255.701 172.161L254.31 173.591Z" fill="#B4CBFF"/>
<path d="M142.574 103.722L172.349 120.9L173.741 119.471L143.966 102.292L142.574 103.722Z" fill="#B4CBFF"/>
<path d="M160.144 139.771L167.135 143.73L168.526 142.3L161.535 138.342L160.144 139.771Z" fill="#B4CBFF"/>
<path d="M250.173 188.01L265.196 196.635L266.587 195.205L251.564 186.581L250.173 188.01Z" fill="#B4CBFF"/>
<path d="M269.155 199.307L284.179 207.932L285.57 206.502L270.547 197.878L269.155 199.307Z" fill="#B4CBFF"/>
<path d="M148.986 87.3863C150.665 85.7989 153.182 85.4647 155.113 86.6344L334.709 190.906C337.562 192.577 338.066 196.503 335.632 198.843L330.381 203.961L141.652 95.5405L148.986 87.3863Z" fill="url(#paint8_linear)"/>
<path d="M148.986 87.3863C150.665 85.7989 153.182 85.4647 155.112 86.6344L334.709 190.906C336.891 192.159 337.646 194.749 336.891 196.921L147.979 88.3889L148.986 87.3863Z" fill="#253C77"/>
<path d="M261.872 239.255L281.56 251.032L292.313 240.653L272.543 228.959L261.872 239.255Z" fill="#B4CBFF" stroke="#F2F5FC" stroke-width="0.321621"/>
<path d="M281.586 251.234L261.612 239.286L249.947 250.732L270.005 262.429L281.586 251.234Z" fill="#D2E1FF"/>
<path d="M269.661 262.455L249.891 250.926L236.708 263.394L253.556 273.061C253.556 273.061 253.556 273.061 253.556 273.062C255.428 274.115 257.866 273.869 259.406 272.336L259.408 272.334L269.661 262.455Z" fill="#B4CBFF" stroke="#F2F5FC" stroke-width="0.321621"/>
<path d="M272.524 228.758L251.795 216.56L240.717 227.338L261.614 239.286L272.524 228.758Z" fill="#D2E1FF"/>
<path d="M249.924 250.53L261.35 239.319L240.741 227.535L229.317 238.336L249.924 250.53Z" fill="#B4CBFF" stroke="#F2F5FC" stroke-width="0.321621"/>
<path d="M249.95 250.731L229.053 238.365L215.625 251.232L236.438 263.43L249.95 250.731Z" fill="#D2E1FF"/>
<path d="M240.688 227.131L251.527 216.585L195.585 183.585L184.496 194.298L240.688 227.131Z" fill="#B4CBFF" stroke="#F2F5FC" stroke-width="0.321621"/>
<path d="M240.705 227.332L184.224 194.329L172.307 205.608L229.039 238.36L240.705 227.332Z" fill="#D2E1FF"/>
<path d="M215.602 251.032L228.788 238.397L172.347 205.813L159.075 218.78L215.602 251.032Z" fill="#B4CBFF" stroke="#F2F5FC" stroke-width="0.321621"/>
<path d="M195.57 183.384L176.352 172.021L164.938 183.384L184.24 194.329L195.57 183.384Z" fill="#D2E1FF"/>
<path d="M172.297 205.409L183.969 194.362L164.958 183.582L153.453 194.3L172.297 205.409Z" fill="#B4CBFF" stroke="#F2F5FC" stroke-width="0.321621"/>
<path d="M172.316 205.608L153.182 194.329L139.334 207.614L158.805 218.809L172.316 205.608Z" fill="#D2E1FF"/>
<path d="M164.904 183.183L176.083 172.053L158.239 161.608L146.401 172.739L164.904 183.183Z" fill="#B4CBFF" stroke="#F2F5FC" stroke-width="0.321621"/>
<path d="M164.933 183.389L146.134 172.778L135.308 183.389L153.184 194.334L164.933 183.389Z" fill="#D2E1FF"/>
<path d="M139.312 207.413L152.921 194.358L135.329 183.586L121.555 196.889L139.312 207.413Z" fill="#B4CBFF" stroke="#F2F5FC" stroke-width="0.321621"/>
<path d="M158.216 161.411L106.224 130.687L94.3898 142.45L146.131 172.774L158.216 161.411Z" fill="#D2E1FF"/>
<path d="M135.28 183.184L145.869 172.806L94.5537 142.773L83.2974 153.734L135.28 183.184Z" fill="#B4CBFF" stroke="#F2F5FC" stroke-width="0.321621"/>
<path d="M83.0272 153.801L135.301 183.473L121.202 197.008L119.44 196.257L74.5407 170.439C71.6873 168.768 71.4789 165.001 73.9127 162.662L83.0272 153.801Z" fill="#D2E1FF"/>
<defs>
<filter id="filter0_f" x="45.3606" y="60.2119" width="392.695" height="271.994" filterUnits="userSpaceOnUse" color-interpolation-filters="sRGB">
<feFlood flood-opacity="0" result="BackgroundImageFix"/>
<feBlend mode="normal" in="SourceGraphic" in2="BackgroundImageFix" result="shape"/>
<feGaussianBlur stdDeviation="4" result="effect1_foregroundBlur"/>
</filter>
<linearGradient id="paint0_linear" x1="207.448" y1="87.9721" x2="214.512" y2="75.4459" gradientUnits="userSpaceOnUse">
<stop stop-color="#F5643D"/>
<stop offset="1" stop-color="#FEA11D"/>
</linearGradient>
<linearGradient id="paint1_linear" x1="180.897" y1="36.1946" x2="266.71" y2="280.031" gradientUnits="userSpaceOnUse">
<stop stop-color="#94A1BE"/>
<stop offset="0.497488" stop-color="#BBC2D3"/>
<stop offset="0.738181" stop-color="#97A1B6"/>
<stop offset="1" stop-color="#8993AA"/>
</linearGradient>
<linearGradient id="paint2_linear" x1="392.892" y1="170.858" x2="390.997" y2="208.969" gradientUnits="userSpaceOnUse">
<stop offset="0.00198317" stop-color="#0F0D23"/>
<stop offset="0.0836288" stop-color="#18162B" stop-opacity="0.918"/>
<stop offset="0.705" stop-color="#595761" stop-opacity="0.2942"/>
<stop offset="0.998" stop-color="#727077" stop-opacity="0"/>
</linearGradient>
<linearGradient id="paint3_linear" x1="205.061" y1="41.3233" x2="261.968" y2="102.339" gradientUnits="userSpaceOnUse">
<stop stop-color="#434756"/>
<stop offset="0.489426" stop-color="#575C6F"/>
<stop offset="1" stop-color="#434756"/>
</linearGradient>
<linearGradient id="paint4_linear" x1="337.886" y1="35.747" x2="322.537" y2="69.1949" gradientUnits="userSpaceOnUse">
<stop stop-color="#BBCDF7"/>
<stop offset="0.244732" stop-color="#CDDDFF"/>
<stop offset="0.547966" stop-color="#D8E6FF"/>
<stop offset="1" stop-color="#DAE6FE"/>
</linearGradient>
<linearGradient id="paint5_linear" x1="304.978" y1="14.4758" x2="248.037" y2="95.8868" gradientUnits="userSpaceOnUse">
<stop stop-color="#E7EFFD"/>
<stop offset="0.104514" stop-color="#F7FAFE"/>
<stop offset="0.455051" stop-color="#FCFDFF"/>
<stop offset="0.82488" stop-color="#F0F5FE"/>
<stop offset="1" stop-color="#DBE7FB"/>
</linearGradient>
<linearGradient id="paint6_linear" x1="273.15" y1="311.01" x2="259.607" y2="315.084" gradientUnits="userSpaceOnUse">
<stop offset="0.0708982" stop-color="#0F182E"/>
<stop offset="0.600263" stop-color="#3F4E72"/>
<stop offset="1" stop-color="#1B243A"/>
</linearGradient>
<linearGradient id="paint7_linear" x1="266.647" y1="298.759" x2="253.86" y2="303.402" gradientUnits="userSpaceOnUse">
<stop stop-color="#A0A9BD"/>
<stop offset="0.494792" stop-color="#B7BFD0"/>
<stop offset="1" stop-color="#A0A9BD"/>
</linearGradient>
<linearGradient id="paint8_linear" x1="158.744" y1="74.4555" x2="337.046" y2="204.136" gradientUnits="userSpaceOnUse">
<stop stop-color="#4F79DE"/>
<stop offset="1" stop-color="#3E68CB"/>
</linearGradient>
</defs>
</svg>
